uart_wave.vcd
$version Generated by VerilatedVcd $end
$timescale 1ps $end
 $scope module TOP $end
  $var wire 1 2 clk_i $end
  $var wire 1 3 rst_ni $end
  $var wire 1 4 we_i $end
  $var wire 32 5 wdata_i [31:0] $end
  $var wire 4 6 addr_i [3:0] $end
  $var wire 32 7 rdata_o [31:0] $end
  $var wire 1 8 tx_o $end
  $var wire 1 9 rx_i $end
  $scope module uart_top $end
   $var wire 32 : CLK_FREQ [31:0] $end
   $var wire 32 ; BAUD_RATE [31:0] $end
   $var wire 1 2 clk_i $end
   $var wire 1 3 rst_ni $end
   $var wire 1 4 we_i $end
   $var wire 32 5 wdata_i [31:0] $end
   $var wire 4 6 addr_i [3:0] $end
   $var wire 32 7 rdata_o [31:0] $end
   $var wire 1 8 tx_o $end
   $var wire 1 9 rx_i $end
   $var wire 32 < BAUD_DIV [31:0] $end
   $var wire 4 = ADDR_TX_DATA [3:0] $end
   $var wire 4 > ADDR_RX_DATA [3:0] $end
   $var wire 4 ? ADDR_STATUS [3:0] $end
   $var wire 8 # tx_data [7:0] $end
   $var wire 1 $ tx_valid $end
   $var wire 1 % tx_busy $end
   $var wire 8 & rx_data [7:0] $end
   $var wire 1 ' rx_valid $end
   $scope module u_uart_rx $end
    $var wire 32 < BAUD_DIV [31:0] $end
    $var wire 1 2 clk_i $end
    $var wire 1 3 rst_ni $end
    $var wire 1 9 rx_i $end
    $var wire 8 & data_o [7:0] $end
    $var wire 1 ' valid_o $end
    $var wire 2 ( state [1:0] $end
    $var wire 10 ) baud_cnt [9:0] $end
    $var wire 3 * bit_cnt [2:0] $end
    $var wire 8 + rx_shift [7:0] $end
    $var wire 1 , rx_sync $end
    $var wire 1 - rx_ff1 $end
    $var wire 1 , rx_ff2 $end
   $upscope $end
   $scope module u_uart_tx $end
    $var wire 32 < BAUD_DIV [31:0] $end
    $var wire 1 2 clk_i $end
    $var wire 1 3 rst_ni $end
    $var wire 8 # data_i [7:0] $end
    $var wire 1 $ valid_i $end
    $var wire 1 % busy_o $end
    $var wire 1 8 tx_o $end
    $var wire 2 . state [1:0] $end
    $var wire 10 / baud_cnt [9:0] $end
    $var wire 3 0 bit_cnt [2:0] $end
    $var wire 8 1 tx_shift [7:0] $end
   $upscope $end
  $upscope $end
 $upscope $end
$enddefinitions $end


#0
b00000000 #
0$
0%
b00000000 &
0'
b00 (
b0000000000 )
b000 *
b00000000 +
0,
0-
b00 .
b0000000000 /
b000 0
b00000000 1
02
03
04
b00000000000000000000000000000000 5
b0000 6
b00000000000000000000000000000000 7
08
19
b00000101111101011110000100000000 :
b00000000000000011100001000000000 ;
b00000000000000000000001101100100 <
b0000 =
b0100 >
b1000 ?
#1
1,
1-
12
18
#2
02
#3
12
#4
02
#5
12
#6
02
#7
12
#8
02
#9
12
#10
02
#11
12
#12
02
#13
12
#14
02
#15
12
#16
02
#17
12
#18
02
#19
12
#20
02
13
14
b00000000000000000000000001010101 5
#21
b01010101 #
1$
12
#22
02
04
#23
0$
1%
b01 .
b01010101 1
12
#24
02
#25
b0000000001 /
12
08
#26
02
#27
b0000000010 /
12
#28
02
#29
b0000000011 /
12
#30
02
#31
b0000000100 /
12
#32
02
#33
b0000000101 /
12
#34
02
#35
b0000000110 /
12
#36
02
#37
b0000000111 /
12
#38
02
#39
b0000001000 /
12
#40
02
#41
b0000001001 /
12
#42
02
#43
b0000001010 /
12
#44
02
#45
b0000001011 /
12
#46
02
#47
b0000001100 /
12
#48
02
#49
b0000001101 /
12
#50
02
#51
b0000001110 /
12
#52
02
#53
b0000001111 /
12
#54
02
#55
b0000010000 /
12
#56
02
#57
b0000010001 /
12
#58
02
#59
b0000010010 /
12
#60
02
#61
b0000010011 /
12
#62
02
#63
b0000010100 /
12
#64
02
#65
b0000010101 /
12
#66
02
#67
b0000010110 /
12
#68
02
#69
b0000010111 /
12
#70
02
#71
b0000011000 /
12
#72
02
#73
b0000011001 /
12
#74
02
#75
b0000011010 /
12
#76
02
#77
b0000011011 /
12
#78
02
#79
b0000011100 /
12
#80
02
#81
b0000011101 /
12
#82
02
#83
b0000011110 /
12
#84
02
#85
b0000011111 /
12
#86
02
#87
b0000100000 /
12
#88
02
#89
b0000100001 /
12
#90
02
#91
b0000100010 /
12
#92
02
#93
b0000100011 /
12
#94
02
#95
b0000100100 /
12
#96
02
#97
b0000100101 /
12
#98
02
#99
b0000100110 /
12
#100
02
#101
b0000100111 /
12
#102
02
#103
b0000101000 /
12
#104
02
#105
b0000101001 /
12
#106
02
#107
b0000101010 /
12
#108
02
#109
b0000101011 /
12
#110
02
#111
b0000101100 /
12
#112
02
#113
b0000101101 /
12
#114
02
#115
b0000101110 /
12
#116
02
#117
b0000101111 /
12
#118
02
#119
b0000110000 /
12
#120
02
#121
b0000110001 /
12
#122
02
#123
b0000110010 /
12
#124
02
#125
b0000110011 /
12
#126
02
#127
b0000110100 /
12
#128
02
#129
b0000110101 /
12
#130
02
#131
b0000110110 /
12
#132
02
#133
b0000110111 /
12
#134
02
#135
b0000111000 /
12
#136
02
#137
b0000111001 /
12
#138
02
#139
b0000111010 /
12
#140
02
#141
b0000111011 /
12
#142
02
#143
b0000111100 /
12
#144
02
#145
b0000111101 /
12
#146
02
#147
b0000111110 /
12
#148
02
#149
b0000111111 /
12
#150
02
#151
b0001000000 /
12
#152
02
#153
b0001000001 /
12
#154
02
#155
b0001000010 /
12
#156
02
#157
b0001000011 /
12
#158
02
#159
b0001000100 /
12
#160
02
#161
b0001000101 /
12
#162
02
#163
b0001000110 /
12
#164
02
#165
b0001000111 /
12
#166
02
#167
b0001001000 /
12
#168
02
#169
b0001001001 /
12
#170
02
#171
b0001001010 /
12
#172
02
#173
b0001001011 /
12
#174
02
#175
b0001001100 /
12
#176
02
#177
b0001001101 /
12
#178
02
#179
b0001001110 /
12
#180
02
#181
b0001001111 /
12
#182
02
#183
b0001010000 /
12
#184
02
#185
b0001010001 /
12
#186
02
#187
b0001010010 /
12
#188
02
#189
b0001010011 /
12
#190
02
#191
b0001010100 /
12
#192
02
#193
b0001010101 /
12
#194
02
#195
b0001010110 /
12
#196
02
#197
b0001010111 /
12
#198
02
#199
b0001011000 /
12
#200
02
#201
b0001011001 /
12
#202
02
#203
b0001011010 /
12
#204
02
#205
b0001011011 /
12
#206
02
#207
b0001011100 /
12
#208
02
#209
b0001011101 /
12
#210
02
#211
b0001011110 /
12
#212
02
#213
b0001011111 /
12
#214
02
#215
b0001100000 /
12
#216
02
#217
b0001100001 /
12
#218
02
#219
b0001100010 /
12
#220
02
#221
b0001100011 /
12
#222
02
#223
b0001100100 /
12
#224
02
#225
b0001100101 /
12
#226
02
#227
b0001100110 /
12
#228
02
#229
b0001100111 /
12
#230
02
#231
b0001101000 /
12
#232
02
#233
b0001101001 /
12
#234
02
#235
b0001101010 /
12
#236
02
#237
b0001101011 /
12
#238
02
#239
b0001101100 /
12
#240
02
#241
b0001101101 /
12
#242
02
#243
b0001101110 /
12
#244
02
#245
b0001101111 /
12
#246
02
#247
b0001110000 /
12
#248
02
#249
b0001110001 /
12
#250
02
#251
b0001110010 /
12
#252
02
#253
b0001110011 /
12
#254
02
#255
b0001110100 /
12
#256
02
#257
b0001110101 /
12
#258
02
#259
b0001110110 /
12
#260
02
#261
b0001110111 /
12
#262
02
#263
b0001111000 /
12
#264
02
#265
b0001111001 /
12
#266
02
#267
b0001111010 /
12
#268
02
#269
b0001111011 /
12
#270
02
#271
b0001111100 /
12
#272
02
#273
b0001111101 /
12
#274
02
#275
b0001111110 /
12
#276
02
#277
b0001111111 /
12
#278
02
#279
b0010000000 /
12
#280
02
#281
b0010000001 /
12
#282
02
#283
b0010000010 /
12
#284
02
#285
b0010000011 /
12
#286
02
#287
b0010000100 /
12
#288
02
#289
b0010000101 /
12
#290
02
#291
b0010000110 /
12
#292
02
#293
b0010000111 /
12
#294
02
#295
b0010001000 /
12
#296
02
#297
b0010001001 /
12
#298
02
#299
b0010001010 /
12
#300
02
#301
b0010001011 /
12
#302
02
#303
b0010001100 /
12
#304
02
#305
b0010001101 /
12
#306
02
#307
b0010001110 /
12
#308
02
#309
b0010001111 /
12
#310
02
#311
b0010010000 /
12
#312
02
#313
b0010010001 /
12
#314
02
#315
b0010010010 /
12
#316
02
#317
b0010010011 /
12
#318
02
#319
b0010010100 /
12
#320
02
#321
b0010010101 /
12
#322
02
#323
b0010010110 /
12
#324
02
#325
b0010010111 /
12
#326
02
#327
b0010011000 /
12
#328
02
#329
b0010011001 /
12
#330
02
#331
b0010011010 /
12
#332
02
#333
b0010011011 /
12
#334
02
#335
b0010011100 /
12
#336
02
#337
b0010011101 /
12
#338
02
#339
b0010011110 /
12
#340
02
#341
b0010011111 /
12
#342
02
#343
b0010100000 /
12
#344
02
#345
b0010100001 /
12
#346
02
#347
b0010100010 /
12
#348
02
#349
b0010100011 /
12
#350
02
#351
b0010100100 /
12
#352
02
#353
b0010100101 /
12
#354
02
#355
b0010100110 /
12
#356
02
#357
b0010100111 /
12
#358
02
#359
b0010101000 /
12
#360
02
#361
b0010101001 /
12
#362
02
#363
b0010101010 /
12
#364
02
#365
b0010101011 /
12
#366
02
#367
b0010101100 /
12
#368
02
#369
b0010101101 /
12
#370
02
#371
b0010101110 /
12
#372
02
#373
b0010101111 /
12
#374
02
#375
b0010110000 /
12
#376
02
#377
b0010110001 /
12
#378
02
#379
b0010110010 /
12
#380
02
#381
b0010110011 /
12
#382
02
#383
b0010110100 /
12
#384
02
#385
b0010110101 /
12
#386
02
#387
b0010110110 /
12
#388
02
#389
b0010110111 /
12
#390
02
#391
b0010111000 /
12
#392
02
#393
b0010111001 /
12
#394
02
#395
b0010111010 /
12
#396
02
#397
b0010111011 /
12
#398
02
#399
b0010111100 /
12
#400
02
#401
b0010111101 /
12
#402
02
#403
b0010111110 /
12
#404
02
#405
b0010111111 /
12
#406
02
#407
b0011000000 /
12
#408
02
#409
b0011000001 /
12
#410
02
#411
b0011000010 /
12
#412
02
#413
b0011000011 /
12
#414
02
#415
b0011000100 /
12
#416
02
#417
b0011000101 /
12
#418
02
#419
b0011000110 /
12
#420
02
#421
b0011000111 /
12
#422
02
#423
b0011001000 /
12
#424
02
#425
b0011001001 /
12
#426
02
#427
b0011001010 /
12
#428
02
#429
b0011001011 /
12
#430
02
#431
b0011001100 /
12
#432
02
#433
b0011001101 /
12
#434
02
#435
b0011001110 /
12
#436
02
#437
b0011001111 /
12
#438
02
#439
b0011010000 /
12
#440
02
#441
b0011010001 /
12
#442
02
#443
b0011010010 /
12
#444
02
#445
b0011010011 /
12
#446
02
#447
b0011010100 /
12
#448
02
#449
b0011010101 /
12
#450
02
#451
b0011010110 /
12
#452
02
#453
b0011010111 /
12
#454
02
#455
b0011011000 /
12
#456
02
#457
b0011011001 /
12
#458
02
#459
b0011011010 /
12
#460
02
#461
b0011011011 /
12
#462
02
#463
b0011011100 /
12
#464
02
#465
b0011011101 /
12
#466
02
#467
b0011011110 /
12
#468
02
#469
b0011011111 /
12
#470
02
#471
b0011100000 /
12
#472
02
#473
b0011100001 /
12
#474
02
#475
b0011100010 /
12
#476
02
#477
b0011100011 /
12
#478
02
#479
b0011100100 /
12
#480
02
#481
b0011100101 /
12
#482
02
#483
b0011100110 /
12
#484
02
#485
b0011100111 /
12
#486
02
#487
b0011101000 /
12
#488
02
#489
b0011101001 /
12
#490
02
#491
b0011101010 /
12
#492
02
#493
b0011101011 /
12
#494
02
#495
b0011101100 /
12
#496
02
#497
b0011101101 /
12
#498
02
#499
b0011101110 /
12
#500
02
#501
b0011101111 /
12
#502
02
#503
b0011110000 /
12
#504
02
#505
b0011110001 /
12
#506
02
#507
b0011110010 /
12
#508
02
#509
b0011110011 /
12
#510
02
#511
b0011110100 /
12
#512
02
#513
b0011110101 /
12
#514
02
#515
b0011110110 /
12
#516
02
#517
b0011110111 /
12
#518
02
#519
b0011111000 /
12
#520
02
#521
b0011111001 /
12
#522
02
#523
b0011111010 /
12
#524
02
#525
b0011111011 /
12
#526
02
#527
b0011111100 /
12
#528
02
#529
b0011111101 /
12
#530
02
#531
b0011111110 /
12
#532
02
#533
b0011111111 /
12
#534
02
#535
b0100000000 /
12
#536
02
#537
b0100000001 /
12
#538
02
#539
b0100000010 /
12
#540
02
#541
b0100000011 /
12
#542
02
#543
b0100000100 /
12
#544
02
#545
b0100000101 /
12
#546
02
#547
b0100000110 /
12
#548
02
#549
b0100000111 /
12
#550
02
#551
b0100001000 /
12
#552
02
#553
b0100001001 /
12
#554
02
#555
b0100001010 /
12
#556
02
#557
b0100001011 /
12
#558
02
#559
b0100001100 /
12
#560
02
#561
b0100001101 /
12
#562
02
#563
b0100001110 /
12
#564
02
#565
b0100001111 /
12
#566
02
#567
b0100010000 /
12
#568
02
#569
b0100010001 /
12
#570
02
#571
b0100010010 /
12
#572
02
#573
b0100010011 /
12
#574
02
#575
b0100010100 /
12
#576
02
#577
b0100010101 /
12
#578
02
#579
b0100010110 /
12
#580
02
#581
b0100010111 /
12
#582
02
#583
b0100011000 /
12
#584
02
#585
b0100011001 /
12
#586
02
#587
b0100011010 /
12
#588
02
#589
b0100011011 /
12
#590
02
#591
b0100011100 /
12
#592
02
#593
b0100011101 /
12
#594
02
#595
b0100011110 /
12
#596
02
#597
b0100011111 /
12
#598
02
#599
b0100100000 /
12
#600
02
#601
b0100100001 /
12
#602
02
#603
b0100100010 /
12
#604
02
#605
b0100100011 /
12
#606
02
#607
b0100100100 /
12
#608
02
#609
b0100100101 /
12
#610
02
#611
b0100100110 /
12
#612
02
#613
b0100100111 /
12
#614
02
#615
b0100101000 /
12
#616
02
#617
b0100101001 /
12
#618
02
#619
b0100101010 /
12
#620
02
#621
b0100101011 /
12
#622
02
#623
b0100101100 /
12
#624
02
#625
b0100101101 /
12
#626
02
#627
b0100101110 /
12
#628
02
#629
b0100101111 /
12
#630
02
#631
b0100110000 /
12
#632
02
#633
b0100110001 /
12
#634
02
#635
b0100110010 /
12
#636
02
#637
b0100110011 /
12
#638
02
#639
b0100110100 /
12
#640
02
#641
b0100110101 /
12
#642
02
#643
b0100110110 /
12
#644
02
#645
b0100110111 /
12
#646
02
#647
b0100111000 /
12
#648
02
#649
b0100111001 /
12
#650
02
#651
b0100111010 /
12
#652
02
#653
b0100111011 /
12
#654
02
#655
b0100111100 /
12
#656
02
#657
b0100111101 /
12
#658
02
#659
b0100111110 /
12
#660
02
#661
b0100111111 /
12
#662
02
#663
b0101000000 /
12
#664
02
#665
b0101000001 /
12
#666
02
#667
b0101000010 /
12
#668
02
#669
b0101000011 /
12
#670
02
#671
b0101000100 /
12
#672
02
#673
b0101000101 /
12
#674
02
#675
b0101000110 /
12
#676
02
#677
b0101000111 /
12
#678
02
#679
b0101001000 /
12
#680
02
#681
b0101001001 /
12
#682
02
#683
b0101001010 /
12
#684
02
#685
b0101001011 /
12
#686
02
#687
b0101001100 /
12
#688
02
#689
b0101001101 /
12
#690
02
#691
b0101001110 /
12
#692
02
#693
b0101001111 /
12
#694
02
#695
b0101010000 /
12
#696
02
#697
b0101010001 /
12
#698
02
#699
b0101010010 /
12
#700
02
#701
b0101010011 /
12
#702
02
#703
b0101010100 /
12
#704
02
#705
b0101010101 /
12
#706
02
#707
b0101010110 /
12
#708
02
#709
b0101010111 /
12
#710
02
#711
b0101011000 /
12
#712
02
#713
b0101011001 /
12
#714
02
#715
b0101011010 /
12
#716
02
#717
b0101011011 /
12
#718
02
#719
b0101011100 /
12
#720
02
#721
b0101011101 /
12
#722
02
#723
b0101011110 /
12
#724
02
#725
b0101011111 /
12
#726
02
#727
b0101100000 /
12
#728
02
#729
b0101100001 /
12
#730
02
#731
b0101100010 /
12
#732
02
#733
b0101100011 /
12
#734
02
#735
b0101100100 /
12
#736
02
#737
b0101100101 /
12
#738
02
#739
b0101100110 /
12
#740
02
#741
b0101100111 /
12
#742
02
#743
b0101101000 /
12
#744
02
#745
b0101101001 /
12
#746
02
#747
b0101101010 /
12
#748
02
#749
b0101101011 /
12
#750
02
#751
b0101101100 /
12
#752
02
#753
b0101101101 /
12
#754
02
#755
b0101101110 /
12
#756
02
#757
b0101101111 /
12
#758
02
#759
b0101110000 /
12
#760
02
#761
b0101110001 /
12
#762
02
#763
b0101110010 /
12
#764
02
#765
b0101110011 /
12
#766
02
#767
b0101110100 /
12
#768
02
#769
b0101110101 /
12
#770
02
#771
b0101110110 /
12
#772
02
#773
b0101110111 /
12
#774
02
#775
b0101111000 /
12
#776
02
#777
b0101111001 /
12
#778
02
#779
b0101111010 /
12
#780
02
#781
b0101111011 /
12
#782
02
#783
b0101111100 /
12
#784
02
#785
b0101111101 /
12
#786
02
#787
b0101111110 /
12
#788
02
#789
b0101111111 /
12
#790
02
#791
b0110000000 /
12
#792
02
#793
b0110000001 /
12
#794
02
#795
b0110000010 /
12
#796
02
#797
b0110000011 /
12
#798
02
#799
b0110000100 /
12
#800
02
#801
b0110000101 /
12
#802
02
#803
b0110000110 /
12
#804
02
#805
b0110000111 /
12
#806
02
#807
b0110001000 /
12
#808
02
#809
b0110001001 /
12
#810
02
#811
b0110001010 /
12
#812
02
#813
b0110001011 /
12
#814
02
#815
b0110001100 /
12
#816
02
#817
b0110001101 /
12
#818
02
#819
b0110001110 /
12
#820
02
#821
b0110001111 /
12
#822
02
#823
b0110010000 /
12
#824
02
#825
b0110010001 /
12
#826
02
#827
b0110010010 /
12
#828
02
#829
b0110010011 /
12
#830
02
#831
b0110010100 /
12
#832
02
#833
b0110010101 /
12
#834
02
#835
b0110010110 /
12
#836
02
#837
b0110010111 /
12
#838
02
#839
b0110011000 /
12
#840
02
#841
b0110011001 /
12
#842
02
#843
b0110011010 /
12
#844
02
#845
b0110011011 /
12
#846
02
#847
b0110011100 /
12
#848
02
#849
b0110011101 /
12
#850
02
#851
b0110011110 /
12
#852
02
#853
b0110011111 /
12
#854
02
#855
b0110100000 /
12
#856
02
#857
b0110100001 /
12
#858
02
#859
b0110100010 /
12
#860
02
#861
b0110100011 /
12
#862
02
#863
b0110100100 /
12
#864
02
#865
b0110100101 /
12
#866
02
#867
b0110100110 /
12
#868
02
#869
b0110100111 /
12
#870
02
#871
b0110101000 /
12
#872
02
#873
b0110101001 /
12
#874
02
#875
b0110101010 /
12
#876
02
#877
b0110101011 /
12
#878
02
#879
b0110101100 /
12
#880
02
#881
b0110101101 /
12
#882
02
#883
b0110101110 /
12
#884
02
#885
b0110101111 /
12
#886
02
#887
b0110110000 /
12
#888
02
#889
b0110110001 /
12
#890
02
#891
b0110110010 /
12
#892
02
#893
b0110110011 /
12
#894
02
#895
b0110110100 /
12
#896
02
#897
b0110110101 /
12
#898
02
#899
b0110110110 /
12
#900
02
#901
b0110110111 /
12
#902
02
#903
b0110111000 /
12
#904
02
#905
b0110111001 /
12
#906
02
#907
b0110111010 /
12
#908
02
#909
b0110111011 /
12
#910
02
#911
b0110111100 /
12
#912
02
#913
b0110111101 /
12
#914
02
#915
b0110111110 /
12
#916
02
#917
b0110111111 /
12
#918
02
#919
b0111000000 /
12
#920
02
#921
b0111000001 /
12
#922
02
#923
b0111000010 /
12
#924
02
#925
b0111000011 /
12
#926
02
#927
b0111000100 /
12
#928
02
#929
b0111000101 /
12
#930
02
#931
b0111000110 /
12
#932
02
#933
b0111000111 /
12
#934
02
#935
b0111001000 /
12
#936
02
#937
b0111001001 /
12
#938
02
#939
b0111001010 /
12
#940
02
#941
b0111001011 /
12
#942
02
#943
b0111001100 /
12
#944
02
#945
b0111001101 /
12
#946
02
#947
b0111001110 /
12
#948
02
#949
b0111001111 /
12
#950
02
#951
b0111010000 /
12
#952
02
#953
b0111010001 /
12
#954
02
#955
b0111010010 /
12
#956
02
#957
b0111010011 /
12
#958
02
#959
b0111010100 /
12
#960
02
#961
b0111010101 /
12
#962
02
#963
b0111010110 /
12
#964
02
#965
b0111010111 /
12
#966
02
#967
b0111011000 /
12
#968
02
#969
b0111011001 /
12
#970
02
#971
b0111011010 /
12
#972
02
#973
b0111011011 /
12
#974
02
#975
b0111011100 /
12
#976
02
#977
b0111011101 /
12
#978
02
#979
b0111011110 /
12
#980
02
#981
b0111011111 /
12
#982
02
#983
b0111100000 /
12
#984
02
#985
b0111100001 /
12
#986
02
#987
b0111100010 /
12
#988
02
#989
b0111100011 /
12
#990
02
#991
b0111100100 /
12
#992
02
#993
b0111100101 /
12
#994
02
#995
b0111100110 /
12
#996
02
#997
b0111100111 /
12
#998
02
#999
b0111101000 /
12
#1000
02
#1001
b0111101001 /
12
#1002
02
#1003
b0111101010 /
12
#1004
02
#1005
b0111101011 /
12
#1006
02
#1007
b0111101100 /
12
#1008
02
#1009
b0111101101 /
12
#1010
02
#1011
b0111101110 /
12
#1012
02
#1013
b0111101111 /
12
#1014
02
#1015
b0111110000 /
12
#1016
02
#1017
b0111110001 /
12
#1018
02
#1019
b0111110010 /
12
#1020
02
#1021
b0111110011 /
12
#1022
02
#1023
b0111110100 /
12
#1024
02
#1025
b0111110101 /
12
#1026
02
#1027
b0111110110 /
12
#1028
02
#1029
b0111110111 /
12
#1030
02
#1031
b0111111000 /
12
#1032
02
#1033
b0111111001 /
12
#1034
02
#1035
b0111111010 /
12
#1036
02
#1037
b0111111011 /
12
#1038
02
#1039
b0111111100 /
12
#1040
02
#1041
b0111111101 /
12
#1042
02
#1043
b0111111110 /
12
#1044
02
#1045
b0111111111 /
12
#1046
02
#1047
b1000000000 /
12
#1048
02
#1049
b1000000001 /
12
#1050
02
#1051
b1000000010 /
12
#1052
02
#1053
b1000000011 /
12
#1054
02
#1055
b1000000100 /
12
#1056
02
#1057
b1000000101 /
12
#1058
02
#1059
b1000000110 /
12
#1060
02
#1061
b1000000111 /
12
#1062
02
#1063
b1000001000 /
12
#1064
02
#1065
b1000001001 /
12
#1066
02
#1067
b1000001010 /
12
#1068
02
#1069
b1000001011 /
12
#1070
02
#1071
b1000001100 /
12
#1072
02
#1073
b1000001101 /
12
#1074
02
#1075
b1000001110 /
12
#1076
02
#1077
b1000001111 /
12
#1078
02
#1079
b1000010000 /
12
#1080
02
#1081
b1000010001 /
12
#1082
02
#1083
b1000010010 /
12
#1084
02
#1085
b1000010011 /
12
#1086
02
#1087
b1000010100 /
12
#1088
02
#1089
b1000010101 /
12
#1090
02
#1091
b1000010110 /
12
#1092
02
#1093
b1000010111 /
12
#1094
02
#1095
b1000011000 /
12
#1096
02
#1097
b1000011001 /
12
#1098
02
#1099
b1000011010 /
12
#1100
02
#1101
b1000011011 /
12
#1102
02
#1103
b1000011100 /
12
#1104
02
#1105
b1000011101 /
12
#1106
02
#1107
b1000011110 /
12
#1108
02
#1109
b1000011111 /
12
#1110
02
#1111
b1000100000 /
12
#1112
02
#1113
b1000100001 /
12
#1114
02
#1115
b1000100010 /
12
#1116
02
#1117
b1000100011 /
12
#1118
02
#1119
b1000100100 /
12
#1120
02
#1121
b1000100101 /
12
#1122
02
#1123
b1000100110 /
12
#1124
02
#1125
b1000100111 /
12
#1126
02
#1127
b1000101000 /
12
#1128
02
#1129
b1000101001 /
12
#1130
02
#1131
b1000101010 /
12
#1132
02
#1133
b1000101011 /
12
#1134
02
#1135
b1000101100 /
12
#1136
02
#1137
b1000101101 /
12
#1138
02
#1139
b1000101110 /
12
#1140
02
#1141
b1000101111 /
12
#1142
02
#1143
b1000110000 /
12
#1144
02
#1145
b1000110001 /
12
#1146
02
#1147
b1000110010 /
12
#1148
02
#1149
b1000110011 /
12
#1150
02
#1151
b1000110100 /
12
#1152
02
#1153
b1000110101 /
12
#1154
02
#1155
b1000110110 /
12
#1156
02
#1157
b1000110111 /
12
#1158
02
#1159
b1000111000 /
12
#1160
02
#1161
b1000111001 /
12
#1162
02
#1163
b1000111010 /
12
#1164
02
#1165
b1000111011 /
12
#1166
02
#1167
b1000111100 /
12
#1168
02
#1169
b1000111101 /
12
#1170
02
#1171
b1000111110 /
12
#1172
02
#1173
b1000111111 /
12
#1174
02
#1175
b1001000000 /
12
#1176
02
#1177
b1001000001 /
12
#1178
02
#1179
b1001000010 /
12
#1180
02
#1181
b1001000011 /
12
#1182
02
#1183
b1001000100 /
12
#1184
02
#1185
b1001000101 /
12
#1186
02
#1187
b1001000110 /
12
#1188
02
#1189
b1001000111 /
12
#1190
02
#1191
b1001001000 /
12
#1192
02
#1193
b1001001001 /
12
#1194
02
#1195
b1001001010 /
12
#1196
02
#1197
b1001001011 /
12
#1198
02
#1199
b1001001100 /
12
#1200
02
#1201
b1001001101 /
12
#1202
02
#1203
b1001001110 /
12
#1204
02
#1205
b1001001111 /
12
#1206
02
#1207
b1001010000 /
12
#1208
02
#1209
b1001010001 /
12
#1210
02
#1211
b1001010010 /
12
#1212
02
#1213
b1001010011 /
12
#1214
02
#1215
b1001010100 /
12
#1216
02
#1217
b1001010101 /
12
#1218
02
#1219
b1001010110 /
12
#1220
02
#1221
b1001010111 /
12
#1222
02
#1223
b1001011000 /
12
#1224
02
#1225
b1001011001 /
12
#1226
02
#1227
b1001011010 /
12
#1228
02
#1229
b1001011011 /
12
#1230
02
#1231
b1001011100 /
12
#1232
02
#1233
b1001011101 /
12
#1234
02
#1235
b1001011110 /
12
#1236
02
#1237
b1001011111 /
12
#1238
02
#1239
b1001100000 /
12
#1240
02
#1241
b1001100001 /
12
#1242
02
#1243
b1001100010 /
12
#1244
02
#1245
b1001100011 /
12
#1246
02
#1247
b1001100100 /
12
#1248
02
#1249
b1001100101 /
12
#1250
02
#1251
b1001100110 /
12
#1252
02
#1253
b1001100111 /
12
#1254
02
#1255
b1001101000 /
12
#1256
02
#1257
b1001101001 /
12
#1258
02
#1259
b1001101010 /
12
#1260
02
#1261
b1001101011 /
12
#1262
02
#1263
b1001101100 /
12
#1264
02
#1265
b1001101101 /
12
#1266
02
#1267
b1001101110 /
12
#1268
02
#1269
b1001101111 /
12
#1270
02
#1271
b1001110000 /
12
#1272
02
#1273
b1001110001 /
12
#1274
02
#1275
b1001110010 /
12
#1276
02
#1277
b1001110011 /
12
#1278
02
#1279
b1001110100 /
12
#1280
02
#1281
b1001110101 /
12
#1282
02
#1283
b1001110110 /
12
#1284
02
#1285
b1001110111 /
12
#1286
02
#1287
b1001111000 /
12
#1288
02
#1289
b1001111001 /
12
#1290
02
#1291
b1001111010 /
12
#1292
02
#1293
b1001111011 /
12
#1294
02
#1295
b1001111100 /
12
#1296
02
#1297
b1001111101 /
12
#1298
02
#1299
b1001111110 /
12
#1300
02
#1301
b1001111111 /
12
#1302
02
#1303
b1010000000 /
12
#1304
02
#1305
b1010000001 /
12
#1306
02
#1307
b1010000010 /
12
#1308
02
#1309
b1010000011 /
12
#1310
02
#1311
b1010000100 /
12
#1312
02
#1313
b1010000101 /
12
#1314
02
#1315
b1010000110 /
12
#1316
02
#1317
b1010000111 /
12
#1318
02
#1319
b1010001000 /
12
#1320
02
#1321
b1010001001 /
12
#1322
02
#1323
b1010001010 /
12
#1324
02
#1325
b1010001011 /
12
#1326
02
#1327
b1010001100 /
12
#1328
02
#1329
b1010001101 /
12
#1330
02
#1331
b1010001110 /
12
#1332
02
#1333
b1010001111 /
12
#1334
02
#1335
b1010010000 /
12
#1336
02
#1337
b1010010001 /
12
#1338
02
#1339
b1010010010 /
12
#1340
02
#1341
b1010010011 /
12
#1342
02
#1343
b1010010100 /
12
#1344
02
#1345
b1010010101 /
12
#1346
02
#1347
b1010010110 /
12
#1348
02
#1349
b1010010111 /
12
#1350
02
#1351
b1010011000 /
12
#1352
02
#1353
b1010011001 /
12
#1354
02
#1355
b1010011010 /
12
#1356
02
#1357
b1010011011 /
12
#1358
02
#1359
b1010011100 /
12
#1360
02
#1361
b1010011101 /
12
#1362
02
#1363
b1010011110 /
12
#1364
02
#1365
b1010011111 /
12
#1366
02
#1367
b1010100000 /
12
#1368
02
#1369
b1010100001 /
12
#1370
02
#1371
b1010100010 /
12
#1372
02
#1373
b1010100011 /
12
#1374
02
#1375
b1010100100 /
12
#1376
02
#1377
b1010100101 /
12
#1378
02
#1379
b1010100110 /
12
#1380
02
#1381
b1010100111 /
12
#1382
02
#1383
b1010101000 /
12
#1384
02
#1385
b1010101001 /
12
#1386
02
#1387
b1010101010 /
12
#1388
02
#1389
b1010101011 /
12
#1390
02
#1391
b1010101100 /
12
#1392
02
#1393
b1010101101 /
12
#1394
02
#1395
b1010101110 /
12
#1396
02
#1397
b1010101111 /
12
#1398
02
#1399
b1010110000 /
12
#1400
02
#1401
b1010110001 /
12
#1402
02
#1403
b1010110010 /
12
#1404
02
#1405
b1010110011 /
12
#1406
02
#1407
b1010110100 /
12
#1408
02
#1409
b1010110101 /
12
#1410
02
#1411
b1010110110 /
12
#1412
02
#1413
b1010110111 /
12
#1414
02
#1415
b1010111000 /
12
#1416
02
#1417
b1010111001 /
12
#1418
02
#1419
b1010111010 /
12
#1420
02
#1421
b1010111011 /
12
#1422
02
#1423
b1010111100 /
12
#1424
02
#1425
b1010111101 /
12
#1426
02
#1427
b1010111110 /
12
#1428
02
#1429
b1010111111 /
12
#1430
02
#1431
b1011000000 /
12
#1432
02
#1433
b1011000001 /
12
#1434
02
#1435
b1011000010 /
12
#1436
02
#1437
b1011000011 /
12
#1438
02
#1439
b1011000100 /
12
#1440
02
#1441
b1011000101 /
12
#1442
02
#1443
b1011000110 /
12
#1444
02
#1445
b1011000111 /
12
#1446
02
#1447
b1011001000 /
12
#1448
02
#1449
b1011001001 /
12
#1450
02
#1451
b1011001010 /
12
#1452
02
#1453
b1011001011 /
12
#1454
02
#1455
b1011001100 /
12
#1456
02
#1457
b1011001101 /
12
#1458
02
#1459
b1011001110 /
12
#1460
02
#1461
b1011001111 /
12
#1462
02
#1463
b1011010000 /
12
#1464
02
#1465
b1011010001 /
12
#1466
02
#1467
b1011010010 /
12
